c:\users\jrodr\desktop\biblioteca\musica\debug\vc120.pdb
c:\users\jrodr\desktop\biblioteca\musica\debug\vc120.idb
c:\users\jrodr\desktop\biblioteca\musica\debug\album.obj
c:\users\jrodr\desktop\biblioteca\musica\debug\artista.obj
c:\users\jrodr\desktop\biblioteca\musica\debug\cancion.obj
c:\users\jrodr\desktop\biblioteca\musica\debug\biblioteca.obj
c:\users\jrodr\desktop\biblioteca\debug\musical.lib
c:\users\jrodr\desktop\biblioteca\musica\debug\musical.tlog\cl.command.1.tlog
c:\users\jrodr\desktop\biblioteca\musica\debug\musical.tlog\cl.read.1.tlog
c:\users\jrodr\desktop\biblioteca\musica\debug\musical.tlog\cl.write.1.tlog
c:\users\jrodr\desktop\biblioteca\musica\debug\musical.tlog\lib-link.read.1.tlog
c:\users\jrodr\desktop\biblioteca\musica\debug\musical.tlog\lib-link.write.1.tlog
c:\users\jrodr\desktop\biblioteca\musica\debug\musical.tlog\lib.command.1.tlog
